Clustering
…
---

```r
res <- tibble(
  clust = fed_km$cluster, 
  auth = fed_ex$auths)

res
```

```
## # A tibble: 70 x 2
##    clust auth 
##    <int> <chr>
##  1     1 AH   
##  2     2 JJ   
##  3     2 JJ   
##  4     2 JJ   
##  5     2 JJ   
##  6     1 AH   
##  7     1 AH   
##  8     1 AH   
##  9     1 AH   
## 10     1 JM   
## # ... with 60 more rows
```
…
